-1 -1
-1 -1
-1 -1
-1 -1
-1 -1
-1 -1
-1 -1
-1 -1
-1 -1
-1 -1
-1 -1
-1 -1
-1 -1
-1 -1
-1 -1
-1 -1
-1 -1
90 409
181 372
233 379
229 371
243 364
266 363
270 362
276 358
318 339
381 324
495 348
501 356
490 380
484 399
476 391
465 384
276 349
251 380
244 382
234 377
227 376
231 373
242 373
265 369
295 376
382 395
416 395
437 378
455 372
480 364
497 360
520 355
544 396
541 442
562 431
564 432
566 421
569 416
565 418
577 412
589 393
593 385
594 379
592 372
602 349
605 359
612 343
593 384
584 405
585 411
595 407
593 408
593 408
590 408
591 406
600 385
603 382
609 376
608 365
606 374
613 376
612 372
606 365
581 274
602 339
618 371
592 301
590 298
582 269
583 270
583 270
583 270
585 272
583 270
584 271
584 269
582 269
579 269
579 269
580 268
580 269
580 268
581 268
